[
  "https://gitlab.com/shadowblue/ci/-/raw/main/modules/nvidia/module.yml",
  "https://gitlab.com/shadowblue/ci/-/raw/main/modules/rpm-fusion/module.yml",
  "https://gitlab.com/shadowblue/ci/-/raw/main/modules/signing/module.yml"
]
